NycFlights13
…
For that we need to find out the Total Delay = Avg Arrival Delay + Avg Departure Delay

loading the flights data

flights %>% 
  select(month, day, arr_delay, dep_delay) %>% 
  filter(arr_delay >= 0, dep_delay >= 0) %>%
  group_by(month, day) %>%
  summarise(avg_delay =  mean(arr_delay, na.rm = TRUE) + 
              mean(dep_delay, na.rm = TRUE)) %>%
  ungroup() %>%
  arrange(-avg_delay)

## # A tibble: 365 x 3
##    month   day avg_delay
##    <int> <int>     <dbl>
##  1     9    12  228.8011
##  2     9     2  223.1130
##  3     7    10  220.1812
##  4     4    10  217.2589
##  5     7    22  209.8665
##  6     3     8  209.1633
##  7     5    23  197.5820
##  8     6    24  197.0659
##  9    12     5  194.9683
## 10     7    28  190.2995
## # ... with 355 more rows
…
Next is we want to know is there any any particular airport where the delay happened

dataflights = flights %>% 
  select(origin,month,day,arr_delay,dep_delay) %>% 
  filter(arr_delay >=0 , dep_delay >=0) %>% 
  group_by(origin,month,day) %>% 
  summarise(avg_delay =  mean(arr_delay, na.rm = TRUE) + 
              mean(dep_delay, na.rm = TRUE)) %>%
  ungroup() %>%
  arrange(-avg_delay)

dataflights

## # A tibble: 1,095 x 4
##    origin month   day avg_delay
##     <chr> <int> <int>     <dbl>
##  1    LGA     9     2  305.4351
##  2    LGA     9    12  252.3333
##  3    EWR     9    12  244.4733
##  4    EWR     3     8  243.7569
##  5    LGA     4    10  241.9775
##  6    LGA     3     8  238.5699
##  7    LGA    12     5  233.2303
##  8    JFK     7    10  232.2164
##  9    LGA     6    24  228.2917
## 10    JFK     4    10  225.8091
## # ... with 1,085 more rows
…
#We also calculate the 'age' of the aircraft as a variable
flight_planes$age = flight_planes$year - flight_planes$year_manufacture

#We group all the performance parameters for each aircraft using their tailnum
#This will give us an average performance index of that aircraft for the year 2013
aircraft = flight_planes %>%
  
  #we group by the tailnum
  group_by(tailnum) %>%
  
  #we find the mean of the Performance index
  summarise(avg_pi = mean(pi, na.rm = TRUE)) 
aircraft

## # A tibble: 4,044 x 2
##    tailnum      avg_pi
##      <chr>       <dbl>
##  1  D942DN  0.44819813
##  2  N0EGMQ  0.17662438
##  3  N10156  0.34844678
##  4  N102UW  0.13274270
##  5  N103US -0.12663516
##  6  N104UW  0.11969494
##  7  N10575  0.74987782
##  8  N105UW -0.01214945
##  9  N107US -0.08330964
## 10  N108UW  0.01661881
## # ... with 4,034 more rows

#we will now add the planes dataset to our aggregated aircraft data
air_details = left_join(aircraft, planes)

## Joining, by = "tailnum"

air_details

## # A tibble: 4,044 x 10
##    tailnum      avg_pi  year                    type     manufacturer
##      <chr>       <dbl> <int>                   <chr>            <chr>
##  1  D942DN  0.44819813    NA                    <NA>             <NA>
##  2  N0EGMQ  0.17662438    NA                    <NA>             <NA>
##  3  N10156  0.34844678  2004 Fixed wing multi engine          EMBRAER
##  4  N102UW  0.13274270  1998 Fixed wing multi engine AIRBUS INDUSTRIE
##  5  N103US -0.12663516  1999 Fixed wing multi engine AIRBUS INDUSTRIE
##  6  N104UW  0.11969494  1999 Fixed wing multi engine AIRBUS INDUSTRIE
##  7  N10575  0.74987782  2002 Fixed wing multi engine          EMBRAER
##  8  N105UW -0.01214945  1999 Fixed wing multi engine AIRBUS INDUSTRIE
##  9  N107US -0.08330964  1999 Fixed wing multi engine AIRBUS INDUSTRIE
## 10  N108UW  0.01661881  1999 Fixed wing multi engine AIRBUS INDUSTRIE
## # ... with 4,034 more rows, and 5 more variables: model <chr>,
## #   engines <int>, seats <int>, speed <int>, engine <chr>
…
